Division,WeightClassKg,Place,Name,Team,BodyweightKg,Best3SquatKg,Best3BenchKg,Best3DeadliftKg,TotalKg,Equipment,Event,Sex
Boys,51.71,1,Peter Loftus,Burkburnett,51.71,140.61,79.38,165.56,385.55,Single-ply,SBD,M
Boys,51.71,2,Emilio Carrizales,Iowa Park,51.62,145.15,77.11,156.49,378.75,Single-ply,SBD,M
Boys,51.71,3,Cameron Calame,Graham,50.89,79.38,58.97,102.06,240.4,Single-ply,SBD,M
Boys,51.71,DQ,Zach Ramirez,Decatur,51.17,140.61,,,,Single-ply,SBD,M
Boys,51.71,DQ,John Clouhon,Olney,50.89,,,,,Single-ply,SBD,M
Boys,59.87,1,Larry Cribbs,Olney,55.88,158.76,83.91,158.76,401.43,Single-ply,SBD,M
Boys,55.79,2,Ken Crawford,Childress,55.43,142.88,81.65,158.76,383.29,Single-ply,SBD,M
Boys,55.79,3,Jd Franke,Henrietta,54.61,138.35,70.31,136.08,344.73,Single-ply,SBD,M
Boys,55.79,4,Cameron Senters,Burkburnett,55.61,127.01,68.04,129.27,324.32,Single-ply,SBD,M
Boys,55.79,5,Josh Wood,Iowa Park,54.7,104.33,68.04,129.27,301.64,Single-ply,SBD,M
Boys,59.87,6,Adam Dobson,Wichita Falls Rider,55.97,104.33,68.04,129.27,301.64,Single-ply,SBD,M
Boys,55.79,7,Sean Terry,Burkburnett,54.79,108.86,63.5,124.74,297.1,Single-ply,SBD,M
Boys,55.79,8,Devin Johnson,Henrietta,52.16,102.06,68.04,122.47,292.57,Single-ply,SBD,M
Boys,55.79,9,Kaleb Fuller,Nocona,54.52,104.33,54.43,106.59,265.35,Single-ply,SBD,M
Boys,55.79,10,Braden Aguirre,Childress,55.7,88.45,56.7,113.4,258.55,Single-ply,SBD,M
Boys,55.79,DQ,Alex Greene,Henrietta,55.16,151.95,70.31,,,Single-ply,SBD,M
Boys,55.79,DQ,Josiah Cansler,Perrin-Whitt,54.34,124.74,,,,Single-ply,SBD,M
Boys,67.13,1,Preston King,Burkburnett,59.96,197.31,102.06,208.65,508.02,Single-ply,SBD,M
Boys,59.87,2,Cole Clouse,Archer City,57.97,154.22,77.11,145.15,376.48,Single-ply,SBD,M
Boys,59.87,3,Adam Byrd,Wichita Falls Rider,57.61,124.74,70.31,142.88,337.93,Single-ply,SBD,M
Boys,59.87,4,Jose Luna,Alvord,58.42,136.08,70.31,124.74,331.12,Single-ply,SBD,M
Boys,59.87,5,Greg Mayo,Electra,58.79,108.86,65.77,129.27,303.91,Single-ply,SBD,M
Boys,59.87,6,Blue Sirils,Wichita Falls City View,57.61,68.04,61.23,104.33,233.6,Single-ply,SBD,M
Boys,59.87,DQ,Conner Brewer,Wichita Falls City View,59.06,,,,,Single-ply,SBD,M
Boys,59.87,DQ,Regan Brewer,Wichita Falls City View,59.06,127.01,,,,Single-ply,SBD,M
Boys,59.87,DQ,Ben Spruiell,Nocona,56.43,,,,,Single-ply,SBD,M
Boys,67.13,DQ,Zane Schrader,Olney,60.06,,,,,Single-ply,SBD,M
Boys,67.13,DQ,Taylor Ross,Nocona,60.06,,,,,Single-ply,SBD,M
Boys,59.87,DQ,Alex Garcia,Bridgeport,58.33,92.99,,,,Single-ply,SBD,M
Boys,67.13,1,Colbey Watson,Iowa Park,66.77,190.51,104.33,204.12,498.95,Single-ply,SBD,M
Boys,67.13,2,Luke Hartman,Iowa Park,66.41,185.97,113.4,161.03,460.4,Single-ply,SBD,M
Boys,67.13,3,Davy Salazar,Childress,66.68,165.56,117.93,176.9,460.4,Single-ply,SBD,M
Boys,67.13,4,Halston Delgado,Decatur,67.13,167.83,92.99,176.9,437.72,Single-ply,SBD,M
Boys,74.84,5,Dominic Thrasher,Wichita Falls Rider,67.31,151.95,99.79,158.76,410.5,Single-ply,SBD,M
Boys,67.13,6,Randy Tucker,Perrin-Whitt,67.13,154.22,86.18,163.29,403.7,Single-ply,SBD,M
Boys,74.84,7,Don Fauver,Henrietta,67.31,142.88,88.45,170.1,401.43,Single-ply,SBD,M
Boys,67.13,8,Dalton Pullin,Seymour,66.86,142.88,83.91,158.76,385.55,Single-ply,SBD,M
Boys,67.13,9,Jaeden Foxe,Wichita Falls,64.59,138.35,68.04,165.56,371.95,Single-ply,SBD,M
Boys,67.13,10,Nick McAden,Wichita Falls,60.42,129.27,83.91,138.35,351.53,Single-ply,SBD,M
Boys,67.13,11,John Phillips,Alvord,62.14,124.74,77.11,138.35,340.19,Single-ply,SBD,M
Boys,67.13,12,Nick Mackenrodt,Decatur,63.23,115.67,72.57,149.69,337.93,Single-ply,SBD,M
Boys,67.13,13,Bradley Freeman,Burkburnett,62.41,115.67,54.43,122.47,292.57,Single-ply,SBD,M
Boys,67.13,14,Caleb Rogers,Iowa Park,67.13,86.18,68.04,127.01,281.23,Single-ply,SBD,M
Boys,67.13,DQ,Devin Garvin,Wichita Falls Rider,63.78,156.49,,,,Single-ply,SBD,M
Boys,67.13,DQ,Justin McDonald,Burkburnett,60.15,,,,,Single-ply,SBD,M
Boys,67.13,DQ,Thomas Trice,Alvord,64.77,,,,,Single-ply,SBD,M
Boys,67.13,DQ,Dalton Day,Henrietta,66.22,,,,,Single-ply,SBD,M
Boys,74.84,1,Cody Polk,Wichita Falls,74.75,249.48,140.61,240.4,630.49,Single-ply,SBD,M
Boys,74.84,2,Kyle Frazier,Burkburnett,73.48,219.99,122.47,197.31,539.77,Single-ply,SBD,M
Boys,74.84,3,Colton Redman,Alvord,72.94,204.12,99.79,226.8,530.7,Single-ply,SBD,M
Boys,74.84,4,Ben Coyle,Iowa Park,73.3,210.92,106.59,208.65,526.17,Single-ply,SBD,M
Boys,82.1,5,Jacob Herring,Henrietta,74.93,199.58,113.4,199.58,512.56,Single-ply,SBD,M
Boys,74.84,6,Isaiah Terry,Burkburnett,74.3,199.58,104.33,204.12,508.02,Single-ply,SBD,M
Boys,74.84,7,Stoney Newberry,Henrietta,73.48,181.44,115.67,197.31,494.42,Single-ply,SBD,M
Boys,74.84,8,Tri Hoang,Wichita Falls City View,71.49,179.17,77.11,213.19,469.47,Single-ply,SBD,M
Boys,74.84,9,Bobby Byrd,Decatur,73.03,190.51,111.13,167.83,469.47,Single-ply,SBD,M
Boys,74.84,10,Will Cawley,Graham,73.39,170.1,106.59,170.1,446.79,Single-ply,SBD,M
Boys,74.84,11,Tyler Adams,Childress,74.3,149.69,92.99,170.1,412.77,Single-ply,SBD,M
Boys,74.84,12,Justin Smith,Petrolia,70.22,136.08,102.06,158.76,396.89,Single-ply,SBD,M
Boys,74.84,13,Cade Ackerman,Childress,67.49,142.88,92.99,158.76,394.63,Single-ply,SBD,M
Boys,74.84,14,Evan Echoler,Petrolia,73.57,142.88,83.91,158.76,385.55,Single-ply,SBD,M
Boys,74.84,15,Gabs Huertz,Bridgeport,69.4,142.88,104.33,133.81,381.02,Single-ply,SBD,M
Boys,74.84,16,Blaze Lynn,Electra,68.4,136.08,81.65,154.22,371.95,Single-ply,SBD,M
Boys,82.1,17,Justin Hassell,Childress,75.02,131.54,79.38,151.95,362.87,Single-ply,SBD,M
Boys,74.84,18,Michael Elmore,Graham,70.13,111.13,92.99,117.93,322.05,Single-ply,SBD,M
Boys,74.84,19,Collin Joyce,Wichita Falls Hirschi,69.58,111.13,65.77,129.27,306.17,Single-ply,SBD,M
Boys,74.84,20,Dawson Parrott,Olney,69.58,106.59,74.84,120.2,301.64,Single-ply,SBD,M
Boys,74.84,21,Braylan Brooks,Graham,71.85,90.72,79.38,129.27,299.37,Single-ply,SBD,M
Boys,74.84,DQ,Jesse Brown,Alvord,74.48,,,,,Single-ply,SBD,M
Boys,74.84,DQ,Justin Kirkendall,Nocona,71.58,,,,,Single-ply,SBD,M
Boys,74.84,DQ,Colby Hutchton,Wichita Falls City View,72.03,147.42,,,,Single-ply,SBD,M
Boys,82.1,DQ,Tyler Kotulek,Wichita Falls Rider,75.02,170.1,,,,Single-ply,SBD,M
Boys,74.84,DQ,Tyler Sullivan,Petrolia,69.13,154.22,,,,Single-ply,SBD,M
Boys,82.1,1,Ryne Cozby,Burkburnett,82.01,249.48,131.54,213.19,594.21,Single-ply,SBD,M
Boys,82.1,2,Carlos Villagran,Olney,75.75,219.99,131.54,204.12,555.65,Single-ply,SBD,M
Boys,82.1,3,Terrance Jackson,Wichita Falls City View,80.92,206.38,97.52,249.48,553.38,Single-ply,SBD,M
Boys,82.1,4,Chris McIlvanie,Iowa Park,81.74,215.46,142.88,195.04,553.38,Single-ply,SBD,M
Boys,82.1,5,Norman James,Wichita Falls City View,78.74,192.78,120.2,192.78,505.76,Single-ply,SBD,M
Boys,82.1,6,Denver Morris,Childress,81.65,174.63,120.2,190.51,485.34,Single-ply,SBD,M
Boys,82.1,7,Nick Lemmond,Seymour,80.65,172.37,111.13,181.44,464.93,Single-ply,SBD,M
Boys,82.1,8,Jd Cuatt,Iowa Park,81.01,170.1,104.33,183.7,458.13,Single-ply,SBD,M
Boys,82.1,9,Kyle Kidwell,Iowa Park,79.56,172.37,108.86,174.63,455.86,Single-ply,SBD,M
Boys,82.1,10,Caiden Fenoglio,Nocona,82.01,170.1,113.4,170.1,453.59,Single-ply,SBD,M
Boys,82.1,11,Colton Carnes,Archer City,79.29,185.97,95.25,170.1,451.32,Single-ply,SBD,M
Boys,82.1,12,Bobby Tatum,Wichita Falls,76.75,170.1,99.79,163.29,433.18,Single-ply,SBD,M
Boys,82.1,13,Jaden Corbin,Bridgeport,76.38,163.29,106.59,161.03,430.91,Single-ply,SBD,M
Boys,82.1,14,Nolan O'Shea,Wichita Falls City View,80.65,161.03,83.91,165.56,410.5,Single-ply,SBD,M
Boys,82.1,15,Hunter Hrncirik,Seymour,81.28,158.76,86.18,158.76,403.7,Single-ply,SBD,M
Boys,82.1,16,Abary Fuentes,Bridgeport,80.47,145.15,83.91,138.35,367.41,Single-ply,SBD,M
Boys,82.1,17,Colton Hastings,Electra,78.11,142.88,70.31,136.08,349.27,Single-ply,SBD,M
Boys,82.1,18,Patrick Riordan,Henrietta,76.38,120.2,63.5,136.08,319.78,Single-ply,SBD,M
Boys,82.1,DQ,Colten Henricks,Seymour,75.3,158.76,,,,Single-ply,SBD,M
Boys,82.1,DQ,Tyler Alaniz,Wichita Falls Rider,76.2,158.76,,,,Single-ply,SBD,M
Boys,82.1,DQ,Dalton Smith,Graham,75.39,,,,,Single-ply,SBD,M
Boys,82.1,DQ,Austin Hicks,Bridgeport,76.29,179.17,,,,Single-ply,SBD,M
Boys,89.81,1,Dai Le,Iowa Park,89.54,238.14,151.95,238.14,628.23,Single-ply,SBD,M
Boys,89.81,2,Joseph Costa,Henrietta,89.63,215.46,140.61,185.97,542.04,Single-ply,SBD,M
Boys,89.81,3,Kyler Koch,Iowa Park,87.09,215.46,113.4,185.97,514.83,Single-ply,SBD,M
Boys,89.81,4,John Clement,Wichita Falls Rider,88.45,206.38,127.01,179.17,512.56,Single-ply,SBD,M
Boys,89.81,5,Lane Labue,Bridgeport,88.18,192.78,113.4,199.58,505.76,Single-ply,SBD,M
Boys,89.81,6,Tyler Johnson,Archer City,87.54,195.04,104.33,195.04,494.42,Single-ply,SBD,M
Boys,89.81,7,Clay Harrison,Graham,82.83,161.03,115.67,165.56,442.25,Single-ply,SBD,M
Boys,89.81,8,Jake Herring,Olney,86,158.76,92.99,185.97,437.72,Single-ply,SBD,M
Boys,89.81,9,Jared Smith,Petrolia,86.64,165.56,104.33,165.56,435.45,Single-ply,SBD,M
Boys,89.81,10,David Guinn,Graham,84.55,149.69,122.47,161.03,433.18,Single-ply,SBD,M
Boys,89.81,11,Jessy Johnson,Perrin-Whitt,83.46,147.42,81.65,151.95,381.02,Single-ply,SBD,M
Boys,89.81,12,Devin Daume,Graham,88.99,124.74,97.52,158.76,381.02,Single-ply,SBD,M
Boys,89.81,13,Cody Messer,Nocona,83.64,154.22,70.31,124.74,349.27,Single-ply,SBD,M
Boys,89.81,14,Jerry Don Fincher,Perrin-Whitt,84.73,108.86,61.23,124.74,294.84,Single-ply,SBD,M
Boys,89.81,DQ,Eddie Speight,Wichita Falls Rider,84.82,204.12,,,,Single-ply,SBD,M
Boys,89.81,DQ,Chris Harrison,Graham,83.1,167.83,117.93,,,Single-ply,SBD,M
Boys,99.79,1,Pat Cummings,Wichita Falls Rider,93.44,217.72,124.74,249.48,591.94,Single-ply,SBD,M
Boys,99.79,2,Isaiah Barnes,Burkburnett,98.16,224.53,131.54,208.65,564.72,Single-ply,SBD,M
Boys,99.79,3,Eric Avalos,Olney,94.44,226.8,124.74,204.12,555.65,Single-ply,SBD,M
Boys,99.79,4,Sam Atwood,Seymour,90.36,190.51,124.74,204.12,519.36,Single-ply,SBD,M
Boys,99.79,5,Jurgen Deraj,Decatur,98.16,195.04,140.61,163.29,498.95,Single-ply,SBD,M
Boys,99.79,6,David Whited,Wichita Falls City View,99.61,185.97,102.06,176.9,464.93,Single-ply,SBD,M
Boys,99.79,7,Breck Gross,Childress,92.08,158.76,90.72,170.1,419.57,Single-ply,SBD,M
Boys,99.79,8,Braxton Watts,Wichita Falls,96.89,138.35,83.91,158.76,381.02,Single-ply,SBD,M
Boys,99.79,9,Jimbo Bently,Childress,96.07,136.08,97.52,145.15,378.75,Single-ply,SBD,M
Boys,99.79,10,Cole Watson,Iowa Park,99.16,129.27,77.11,154.22,360.61,Single-ply,SBD,M
Boys,99.79,DQ,Anthony Garcia,Wichita Falls City View,98.7,181.44,,,,Single-ply,SBD,M
Boys,99.79,DQ,Leroy Kelly,Wichita Falls,96.98,260.82,,,,Single-ply,SBD,M
Boys,109.77,1,Justin Thacker #2,Iowa Park,108.14,294.84,192.78,276.69,764.3,Single-ply,SBD,M
Boys,109.77,2,Scott Dobbins,Burkburnett,107.86,303.91,188.24,249.48,741.62,Single-ply,SBD,M
Boys,109.77,3,Thanh Hoang,Wichita Falls City View,107.77,260.82,138.35,267.62,666.78,Single-ply,SBD,M
Boys,109.77,4,Sam Powers,Henrietta,108.32,242.67,115.67,226.8,585.13,Single-ply,SBD,M
Boys,124.74,5,Ruben Villegas,Childress,109.86,188.24,129.27,213.19,530.7,Single-ply,SBD,M
Boys,109.77,6,Gary Suarez,Burkburnett,102.69,179.17,117.93,206.38,503.49,Single-ply,SBD,M
Boys,109.77,7,Jeremy Adams #3,Decatur,103.51,172.37,95.25,181.44,449.06,Single-ply,SBD,M
Boys,109.77,8,Hunter Golden,Graham,102.69,161.03,104.33,174.63,439.98,Single-ply,SBD,M
Boys,109.77,9,Blaz Hernandez,Bridgeport,104.78,167.83,115.67,149.69,433.18,Single-ply,SBD,M
Boys,109.77,10,Caleb Anderson,Burkburnett,108.23,124.74,83.91,136.08,344.73,Single-ply,SBD,M
Boys,109.77,DQ,Mason Harris,Iowa Park,100.7,102.06,,,,Single-ply,SBD,M
Boys,124.74,1,Caleb England,Iowa Park,124.56,290.3,190.51,226.8,707.6,Single-ply,SBD,M
Boys,124.74,2,Darius Anderson,Wichita Falls,124.47,276.69,181.44,217.72,675.85,Single-ply,SBD,M
Boys,124.74,3,Dillon Harden,Graham,121.38,215.46,122.47,215.46,553.38,Single-ply,SBD,M
Boys,124.74,4,Dylan McDoorman,Wichita Falls Rider,123.83,226.8,124.74,192.78,544.31,Single-ply,SBD,M
Boys,124.74,DQ,Justin Wood,Wichita Falls Rider,111.77,240.4,133.81,,,Single-ply,SBD,M
Boys,124.74,DQ,Derrell Guillory,Wichita Falls Hirschi,116.21,,,,,Single-ply,SBD,M
Boys,124.74+,1,Lorenzo Barnes,Burkburnett,145.15,376.48,226.8,272.16,875.43,Single-ply,SBD,M
Boys,124.74+,2,Reid Graves,Iowa Park,146.6,272.16,172.37,235.87,680.39,Single-ply,SBD,M
Boys,124.74+,3,Scott Buerger,Archer City,128.91,199.58,113.4,190.51,503.49,Single-ply,SBD,M
Boys,124.74+,4,Nick Ward,Iowa Park,136.98,149.69,95.25,163.29,408.23,Single-ply,SBD,M
Boys,124.74+,5,Mason Fairchild,Iowa Park,133.36,145.15,77.11,136.08,358.34,Single-ply,SBD,M
Boys,124.74+,DQ,Zach Tarr,Wichita Falls,159.03,,,,,Single-ply,SBD,M
Boys,124.74+,DQ,Travis Bienicewicz,Wichita Falls City View,160.93,,,,,Single-ply,SBD,M
Boys,,NS,Jeremy Lingle,Alvord,,,,,,Single-ply,SBD,M
Boys,,NS,Coltyn Rater,Archer City,,,,,,Single-ply,SBD,M
Boys,,NS,Wes Hastings,Archer City,,,,,,Single-ply,SBD,M
Boys,,NS,Grant Biediger,Alvord,,,,,,Single-ply,SBD,M
