Name,Age,Sex,Equipment,Division,BodyweightKg,WeightClassKg,Squat1Kg,Squat2Kg,Squat3Kg,Best3SquatKg,Bench1Kg,Bench2Kg,Bench3Kg,Best3BenchKg,Deadlift1Kg,Deadlift2Kg,Deadlift3Kg,Best3DeadliftKg,TotalKg,Place,Event
Anna DuBoyce,19,F,Raw,F_TR_3_APF,64,67.5,72.5,85,92.5,92.5,47.5,55,60,60,115,127.5,140,140,292.5,1,SBD
Anne Keckler,49,F,Raw,F_MR_2_APF,64.6,67.5,97.5,102.5,-107.5,102.5,55,57.5,-62.5,57.5,95,100,105,105,265,1,SBD
Austin Whiteman,18,M,Wraps,M_TCR_3_APF,66.8,67.5,105,-115,-115,105,70,-82.5,-82.5,70,127.5,135,-140,135,310,1,SBD
Bob Deprez,66,M,Multi-ply,M_MEM_6_APF,103,110,95,105,117.5,117.5,67.5,72.5,-80,72.5,145,155,162.5,162.5,352.5,1,SBD
Brian Schwab,40,M,Single-ply,M_OES_APF,73.6,75,292.5,-320,-320,292.5,185,197.5,-205,197.5,242.5,260,-272.5,260,750,1,SBD
Bryan Dyer,44,M,Raw,M_MR_1_APF,73.2,75,135,142.5,147.5,147.5,115,122.5,127.5,127.5,177.5,192.5,197.5,197.5,472.5,1,SBD
Chad Walker,33,M,Multi-ply,M_OEM_APF,138.8,140,420,442.5,455,455,272.5,292.5,305,305,320,365,-375,365,1125,1,SBD
CJ Clearwater,35,M,Multi-ply,M_OEM_APF,94.5,100,-272.5,-272.5,272.5,272.5,-227.5,-227.5,-227.5,,272.5,,,272.5,,DQ,SBD
Dan Hogan,34,M,Wraps,M_OCR_APF,58.6,60,-160,-160,160,160,120,-130,130,130,160,170,182.5,182.5,472.5,1,SBD
David Earp,52,M,Raw,M_MR_3_APF,123.4,125,215,230,-235,230,147.5,155,162.5,162.5,250,262.5,275,275,667.5,1,SBD
David Earp,52,M,Raw,M_OR_APF,123.4,125,215,230,-235,230,147.5,155,162.5,162.5,250,262.5,275,275,667.5,1,SBD
Destiny Bryan,18,F,Wraps,F_TCR_3_APF,61.6,67.5,95,100,-115,100,42.5,-50,-50,42.5,107.5,112.5,-120,112.5,255,1,SBD
Geoffrey Boettier,18,M,Wraps,M_TCR_3_APF,66.6,67.5,-165,-165,,,142.5,,,142.5,165,,,165,,DQ,SBD
Gillian Tedeschi,27,F,Raw,F_OR_APF,55.8,56,102.5,110,-115,110,60,-62.5,-62.5,60,137.5,150,-157.5,150,320,1,SBD
Gracin Bryan,32,M,Wraps,M_OCR_APF,134.6,140,247.5,267.5,-295,267.5,160,-175,175,175,217.5,247.5,-272.5,247.5,690,1,SBD
James Sevick,45,M,Wraps,M_MCR_2_APF,145,140+,250,267.5,-280,267.5,147.5,157.5,167.5,167.5,250,272.5,280,280,715,1,SBD
James Watson,30,M,Wraps,M_OCR_APF,117.8,125,240,-247.5,-247.5,240,162.5,-172.5,-172.5,162.5,,,,,,DQ,SBD
Joshua Babcock,23,M,Raw,M_JR_APF,110,110,285,302.5,-320,302.5,157.5,170,-175,170,290,302.5,320,320,792.5,1,SBD
Joshua Harmon,27,M,Wraps,M_OCR_APF,88.8,90,217.5,227.5,235,235,132.5,137.5,140,140,217.5,225,235,235,610,1,SBD
Krystal Schankowitz,32,F,Raw,F_OR_APF,,,,,,,,,,,,,,,,DQ,SBD
Lee Lichtle,71,M,Wraps,M_MCR_7_APF,81.8,82.5,140,-150,150,150,117.5,122.5,127.5,127.5,160,175,182.5,182.5,460,1,SBD
Matt Schenone,23,M,Raw,M_OR_APF,81.8,82.5,265,275,282.5,282.5,142.5,152.5,-160,152.5,265,280,-292.5,280,715,1,SBD
Meggan Gillham,24,F,Wraps,F_OCR_APF,71.2,75,57.5,-65,-67.5,57.5,42.5,-47.5,-47.5,42.5,87.5,92.5,97.5,97.5,197.5,1,SBD
Neal Cotton,26,M,Multi-ply,M_OEM_APF,123.4,125,-367.5,367.5,385,385,-242.5,-242.5,242.5,242.5,302.5,320,332.5,332.5,960,1,SBD
Nigel Clark,21,M,Wraps,M_JCR_APF,80.4,82.5,187.5,195,207.5,207.5,122.5,137.5,-142.5,137.5,207.5,-227.5,-227.5,207.5,552.5,1,SBD
Oscar Acosta,41,M,Single-ply,M_MES_1_APF,104.2,110,175,192.5,215,215,152.5,165,170,170,205,220,227.5,227.5,612.5,1,SBD
Reba Shinn,15,F,Wraps,F_TCR_1_APF,47.8,48,62.5,70,-85,70,-42.5,45,-52.5,45,57.5,70,72.5,72.5,187.5,1,SBD
Richie Hayes,20,M,Raw,M_JR_APF,65.2,67.5,-142.5,152.5,160,160,92.5,102.5,-110,102.5,182.5,197.5,-205,197.5,460,1,SBD
Rodney Donald Garlits,26,M,Raw,M_OR_APF,118.4,125,265,285,-300,285,192.5,205,-215,205,265,272.5,-280,272.5,762.5,1,SBD
Skyler Leaphart,16,F,Wraps,F_TCR_2_APF,54,56,87.5,90,100,100,40,42.5,-47.5,42.5,-100,100,110,110,252.5,1,SBD
Stephen Harper,25,M,Single-ply,M_OES_APF,88,90,-277.5,-277.5,277.5,277.5,207.5,215,-230,215,267.5,290,-320,290,782.5,1,SBD
Tyler Marino,24,M,Wraps,M_OCR_APF,81.8,82.5,107.5,125,142.5,142.5,125,135,142.5,142.5,187.5,215,227.5,227.5,512.5,1,SBD
Tyrone Evans,38,M,Wraps,M_OCR_APF,117,125,192.5,205,230,230,147.5,157.5,-170,157.5,252.5,287.5,295,295,682.5,1,SBD
Victor Pace,55,M,Raw,M_MR_4_APF,149.8,140+,82.5,87.5,-95,87.5,87.5,97.5,105,105,115,127.5,137.5,137.5,330,1,SBD
Don Daubert,44,M,Raw,M_MR_1_APF,117.2,125,,,,,200,210,220,220,,,,,220,1,B
Greg Alvarado,43,M,Single-ply,M_MES_1_APF,112.7,125,,,,,192.5,205,-227.5,205,,,,,205,1,B
Greg Alvarado,43,M,Single-ply,M_OES_APF,112.7,125,,,,,192.5,205,-227.5,205,,,,,205,1,B
Lee Lichtle,71,M,Raw,M_MCR_7_APF,81.8,82.5,,,,,117.5,122.5,127.5,127.5,,,,,127.5,1,B
Morgan Mann,31,M,Single-ply,M_OES_APF,121.8,125,,,,,-287.5,-287.5,-287.5,,,,,,,DQ,B
Rocky Pallate,54,M,Raw,M_MR_3_APF,88.8,90,,,,,-140,-145,-145,,,,,,,DQ,B
Mindy Underwood,35,F,Raw,F_OR_APF,102.8,90+,,,,,,,,,207.5,-215,-215,207.5,207.5,1,D
