Place,Name,State,WeightClassKg,BodyweightKg,Age,Best3BenchKg,Best3DeadliftKg,TotalKg,Sex,Division,Equipment,Deadlift4Kg,Bench4Kg,Event
1,Bryana Washington,CA,75,73.70,14,47.50,115.00,162.50,F,Juniors 13-15,Raw,,,BD
1,Amber Prado,CA,82.5,79.20,21,62.50,137.50,200.00,F,Juniors 20-23,Raw,,,BD
1,DeAnna Bailey,CA,56,55.50,26,50.00,92.50,142.50,F,Open,Raw,,,BD
1,Shae Martin,CA,75,70.10,30,67.50,130.00,197.50,F,Open,Raw,,,BD
DQ,Stephanie Stephens,NV,75,71.50,35,-80.00,137.50,,F,Open,Raw,,,BD
1,Elisa Lozano,CA,82.5,79.80,33,80.00,155.00,235.00,F,Open,Raw,,,BD
2,Angelica Johnson,CA,82.5,76.90,31,57.50,117.50,175.00,F,Open,Raw,,,BD
1,Lisa Atherton,CA,90+,111.00,28,62.50,147.50,210.00,F,Open,Raw,,,BD
2,Jae Aube,CA,90+,114.10,32,47.50,115.00,162.50,F,Open,Raw,,,BD
1,Vicki Estes,CA,60,58.50,51,55.00,120.00,175.00,F,Masters 50-54,Raw,127.5,,BD
1,Brandi Moore,CA,75,69.20,44,57.50,115.00,172.50,F,Masters 40-44,Raw,,,BD
2,Suzette Aranda,CA,75,72.80,40,52.50,120.00,172.50,F,Masters 40-44,Raw,,,BD
1,Lil Stewart,CA,82.5,80.20,72,35.00,102.50,137.50,F,Masters 70-74,Raw,,,BD
1,Minardo Ordonez,CA,60,59.60,22,87.50,170.00,257.50,M,Juniors 20-23,Raw,,,BD
1,Raymond Garcia,CA,67.5,60.10,15,82.50,157.50,240.00,M,Juniors 13-15,Raw,160,,BD
1,Miguel Gudino,CA,75,73.00,22,102.50,215.00,317.50,M,Juniors 20-23,Raw,,,BD
1,Joshua Young,CA,82.5,81.10,23,127.50,205.00,332.50,M,Juniors 20-23,Raw,,,BD
2,Scott Irwin,CA,82.5,82.10,20,137.50,182.50,320.00,M,Juniors 20-23,Raw,,,BD
1,Paul Riccio,CA,90,86.20,16,100.00,190.00,290.00,M,Juniors 16-17,Raw,,,BD
1,Andrew Binger,CA,90,86.00,19,130.00,190.00,320.00,M,Juniors 18-19,Raw,,,BD
1,Luis Escamilla,CA,100,99.70,21,132.50,242.50,375.00,M,Juniors 20-23,Raw,,,BD
1,Alberto Sanchez,CA,140+,154.10,23,100.00,202.50,302.50,M,Juniors 20-23,Raw,,,BD
1,Jason Vicente,CA,67.5,66.40,30,127.50,205.00,332.50,M,Open,Raw,,,BD
1,Brandon Boranda,CA,82.5,79.60,31,185.00,250.00,435.00,M,Open,Raw,,,BD
DQ,Ryan Taylor,CA,82.5,82.50,25,-127.50,,,M,Open,Raw,,,BD
1,Ryan King #2,CA,90,88.80,29,192.50,282.50,475.00,M,Open,Raw,,,BD
2,Matt MacDonald,CA,90,88.5,28,142.50,272.50,415.00,M,Open,Raw,,,BD
3,David Jones,CA,90,84.80,26,137.50,227.50,365.00,M,Open,Raw,,,BD
DQ,Hector Roman,CA,90,90.00,30,140.00,-187.50,,M,Open,Raw,,,BD
1,Chezuray Torres,CA,100,96.60,28,170.00,240.00,410.00,M,Open,Raw,,,BD
DQ,Colton Carlson,CA,100,98.80,30,-175.00,240.00,,M,Open,Raw,,,BD
1,Nick Terry,CA,110,100.90,28,190.00,282.50,472.50,M,Open,Raw,,,BD
2,Joseph Ferguson,CA,110,106.00,33,175.00,290.00,465.00,M,Open,Raw,,,BD
3,Christopher Hylton,CA,110,105.80,27,165.00,240.00,405.00,M,Open,Raw,,,BD
1,Max Tooker,CA,125,124.90,28,182.50,320.00,502.50,M,Open,Raw,,,BD
2,Clayton Cox,CA,125,120.20,24,200.00,285.00,485.00,M,Open,Raw,,,BD
3,Jorge Rosas,CA,125,117.90,24,142.50,265.00,407.50,M,Open,Raw,,,BD
1,Eduardo Martinez,CA,140,136.50,44,180.00,290.00,470.00,M,Open,Raw,,,BD
2,Marvin Statler,CA,140,133.60,28,192.50,250.00,442.50,M,Open,Raw,,,BD
3,Richard Hall,CA,140,130.10,33,115.00,195.00,310.00,M,Open,Raw,,,BD
1,Josh South,CA,140+,143.60,32,215.00,272.50,487.50,M,Open,Raw,,,BD
1,Reginald Washington,CA,140+,162.80,35,180.00,200.00,380.00,M,Submasters 35-39,Raw,,,BD
1,Eduardo Martinez,CA,140,136.50,44,180.00,290.00,470.00,M,Masters 40-44,Raw,,,BD
1,Gary Witcher Jr,CA,140,126.80,45,182.50,235.00,417.50,M,Masters 45-49,Raw,,,BD
1,Tracy Terry,CA,140+,148.90,40,142.50,200.00,342.50,M,Masters 40-44,Raw,,,BD
2,Dan Stephens,NV,140+,201.60,44,137.50,205.00,342.50,M,Masters 40-44,Raw,,,BD
1,Eric Lozano,CA,100,97.00,20,140.00,227.50,367.50,M,Juniors 20-23,Single-ply,,,BD
1,Anthony Flores,CA,140,125.10,24,172.50,272.50,445.00,M,Open,Single-ply,,,BD
1,Steven Lee,CA,140+,155.80,35,275.00,240.00,515.00,M,Open,Single-ply,,,BD
DQ,Mark Folweiler,CA,140+,181.60,24,-275.00,242.50,,M,Open,Single-ply,,,BD
1,Robert Lee,CA,140,138.90,38,327.50,265.00,592.50,M,Submasters 35-39,Single-ply,,,BD
1,Steven Lee,CA,140+,155.80,35,275.00,240.00,515.00,M,Submasters 35-39,Single-ply,,,BD
1,Quinn Bremes,CA,140+,147.20,53,210.00,235.00,445.00,M,Masters 50-54,Single-ply,,,BD
1,Ka'lene Herbias,CA,67.5,64.10,16,47.50,80.00,127.50,F,Juniors 16-17,Multi-ply,85.0,48.0,BD
1,Tracey Stanley,CA,67.5,67.40,51,50.00,,50.00,F,Open,Raw,,,B
1,Rhonda Nunes,CA,75,71.00,67,78.00,,78.00,F,Open,Raw,,,B
1,Wendy Soto,CA,56,54.70,38,60.00,,60.00,F,Submasters 35-39,Raw,,,B
1,Tracey Stanley,CA,67.5,67.40,51,50.00,,50.00,F,Masters 50-54,Raw,,,B
1,Rhonda Nunes,CA,75,71.00,67,78.00,,78.00,F,Masters 65-69,Raw,,,B
1,Lil Stewart,CA,82.5,80.20,72,35.00,,35.00,F,Masters 70-74,Raw,,,B
1,Hector Roman,CA,90,90.00,30,140.00,,140.00,M,Open,Raw,,,B
1,James Lewis,CA,100,97.70,38,197.50,,197.50,M,Open,Raw,,198,B
2,Herman Dean,CA,100,98.40,34,190.00,,190.00,M,Open,Raw,,,B
DQ,Colton Carlson,CA,100,98.80,30,-175.00,,,M,Open,Raw,,,B
1,Jamar Randolph,CA,140+,154.30,35,242.50,,242.50,M,Open,Raw,,,B
1,James Lewis,CA,100,97.70,38,197.50,,197.50,M,Submasters 35-39,Raw,,198,B
1,Reginald Washington,CA,140+,162.80,35,180.00,,180.00,M,Submasters 35-39,Raw,,,B
1,Jeffery Stanley,CA,75,73.60,57,95.00,,95.00,M,Masters 55-59,Raw,,,B
1,Kiana Elliott,CA,60,59.80,16,42.50,,42.50,F,Juniors 16-17,Single-ply,,,B
DQ,Stephanie Stephens,NV,75,71.50,35,-120.00,,,F,Open,Single-ply,,,B
1,David Nunes,CA,100,91.90,56,182.50,,182.50,M,Open,Single-ply,,,B
DQ,Dan Stephens,NV,140+,201.60,44,-205.00,,,M,Masters 40-44,Single-ply,,,B
1,Kalani Teriipaia,CA,60,59.90,13,37.50,,37.50,M,Juniors 13-15,Multi-ply,,,B
1,Stephanie Stephens,NV,75,71.50,35,,137.50,137.50,F,Open,Raw,,,D
1,Wendy Soto,CA,56,54.70,38,,110.00,110.00,F,Submasters 35-39,Raw,,,D
1,Lil Stewart,CA,82.5,80.20,72,,102.50,102.50,F,Masters 70-74,Raw,,,D
1,Ethan Nicholson,CA,140,131.9,14,,85.0,85.0,M,Juniors 13-15,Raw,,,D
1,Lewis Jennings,CA,90,88.3,41,,245.0,245.0,M,Open,Raw,,,D
1,Colton Carlson,CA,100,98.8,30,,240.0,240.0,M,Open,Raw,,,D
1,Tyler Ward,CA,125,123.6,26,,297.5,297.5,M,Open,Raw,,,D
1,Jeffrey Stanley,CA,75,73.6,57,,195.0,195.0,M,Masters 55-59,Raw,,,D
1,Adam Herrera,CA,125,110.20,42,,62.5,62.5,M,Masters 40-44,Raw,,,D
1,Lisa Wheeler,CA,75,73.5,46,,137.5,137.5,F,Masters 45-49,Single-ply,,,D
1,Cameron Moore,CA,100,93,25,,265.0,265.0,M,Open,Single-ply,,,D
1,Mark Folweiler,CA,140+,181.6,24,,242.5,242.5,M,Open,Single-ply,,,D
1,Mark Walsh,CA,100,96.2,53,,187.5,187.5,M,Masters 50-54,Single-ply,,,D
